[
    {
        "id": 1,
        "name": "Name 1",
        "description": "Lorem Ipsum",
        "price": 106,
        "start_date": "2020-01-01"
    },
    {
        "id": 2,
        "name": "Name 2",
        "description": "Lorem Ipsum",
        "price": 101,
        "start_date": "2014-10-01"
    },
    {
        "id": 3,
        "name": "Name 3",
        "description": "Lorem Ipsum",
        "price": 150,
        "start_date": "2011-05-15"
    },
    {
        "id": 4,
        "name": "Name 4",
        "description": "Lorem Ipsum",
        "price": 170,
        "start_date": "2015-03-06"
    },
    {
        "id": 5,
        "name": "Name 5",
        "description": "Lorem Ipsum",
        "price": 100,
        "start_date": "2015-03-04"
    },
    {
        "id": 6,
        "name": "Name 6",
        "description": "Lorem Ipsum",
        "price": 95,
        "start_date": "2000-08-12"
    }
]